<?xml version="1.0" encoding="utf-8"?>
<!-- Generator: Adobe Illustrator 19.2.1, SVG Export Plug-In . SVG Version: 6.00 Build 0)  -->
<svg version="1.1" id="Layer_1" xmlns="http://www.w3.org/2000/svg" xmlns:xlink="http://www.w3.org/1999/xlink" x="0px" y="0px"
	 viewBox="0 0 304.4 304.4" style="enable-background:new 0 0 304.4 304.4;" xml:space="preserve">
<style type="text/css">
	.st0{fill:#2EB798;}
	.st1{fill:#E6E6E6;}
	.st2{fill:#003A4F;}
	.st3{fill:#336172;}
	.st4{fill:#FFFFFF;}
	.st5{fill:#B3B3B3;}
	.st6{fill:#F2F2F2;}
	.st7{fill:#26997F;}
</style>
<g>
	<path class="st0" d="M304.4,152.2c0,84.1-68.1,152.2-152.2,152.2C68.1,304.4,0,236.3,0,152.2S68.1,0,152.2,0
		C236.3,0,304.4,68.2,304.4,152.2z"/>
	<g>
		<polygon class="st1" points="178.2,215.1 176.1,200.3 129,200.3 126.7,214.8 178.4,215.1 		"/>
		<path class="st2" d="M234.4,87.6c0-2.9-2.4-5.3-5.4-5.3H75.4c-3,0-5.3,2.4-5.3,5.3v93.1h164.4V87.6z"/>
		<path class="st3" d="M234.4,92.3c0-2.9-2.4-5.3-5.4-5.3H75.4c-3,0-5.3,2.4-5.3,5.3v93.1h164.4V92.3z"/>
		<path class="st4" d="M70,185.4v10.4c0,2.9,2.4,5.3,5.3,5.3H229c2.9,0,5.4-2.4,5.4-5.3v-10.4H70z"/>
		<rect x="117.4" y="216.6" class="st4" width="70" height="5.5"/>
		<polygon class="st5" points="187.4,216.6 117.4,216.6 126.9,213.9 178,213.9 		"/>
		<g>
			<polygon class="st4" points="227.4,95 77.6,95 77.6,178.8 227.4,95.1 			"/>
			<polygon class="st6" points="77.6,178.8 77.6,178.8 227.4,178.8 227.4,95.1 			"/>
		</g>
	</g>
	<path class="st7" d="M304.4,152.2c0-9.7-0.9-19.2-2.7-28.4l-69.5-40.4c1.3,1,2.2,2.5,2.2,4.2v4.7v88.5v4.7v10.4
		c0,2.9-2.4,5.3-5.4,5.3h-52.9l1.9,12.8l9.4,2.7v5.5h-70v-5.5l9.5-2.7l2-12.8H75.4c-0.2,0-0.5,0-0.7-0.1l148,86
		C271.3,261.7,304.4,210.8,304.4,152.2z"/>
</g>
</svg>
